{
  "twitter": {
    "SERVICE": "twitter",
    "LOGIN_STYLE": "popup",
    "CONSUMER_KEY": "IsWydHUT3KXONQJfoO6sbsV2o",
    "CONSUMER_SECRET": "x4zpjuyTjS1JJqXzj3PqbDvpIMWBpVBL6IwlvaNrrUod6k1qRE",
    "ACCESS_TOKEN": "41742474-Jfkkv0VaYmXSw7OtifgGihOzlnvBQX20u4SM0sgPZ",
    "ACCESS_TOKEN_SECRET": "10CpLcL2EpplaZRMwkgRDfVhwTIwYAkwFEwDLSXWxC2Hk"
  },
  "galaxy.meteor.com": {
    "env": {
      "MONGO_URL": "mongodb+srv://titomdb:m375taespPiad9NQ@cluster0-7wsai.mongodb.net/test?retryWrites=true",
      "TZ": "America/Sao_Paulo",
      "ROOT_URL": "https://www.titomapp.com"
    }
  }
}